{
  "version": 8,
  "sources": {
    "stamen-terrain": {
      "type": "raster",
      "tileSize": 256,
      "tiles": [
        "https://tiles.stadiamaps.com/tiles/stamen_terrain/{z}/{x}/{y}.png"
      ],
      "minzoom": 0,
      "maxzoom": 18,
      "attribution": "Map tiles by <a href=\"http://stamen.com\">Stamen Design</a>, under <a href=\"http://creativecommons.org/licenses/by/3.0\">CC BY 3.0</a>. Data by <a href=\"http://openstreetmap.org\">OpenStreetMap</a>, under <a href=\"http://www.openstreetmap.org/copyright\">ODbL</a>"
    }
  },
  "layers": [
    {
      "id": "stamen-terrain",
      "type": "raster",
      "source": "stamen-terrain",
      "minzoom": 0,
      "maxzoom": 18
    }
  ]
}
